{
  "parent": "block/cube_all",
  "textures": {
    "all": "onecountryrp_complementary_pack:blocks/stone_bricks_fancy_8",
    "particle": "onecountryrp_complementary_pack:blocks/stone_bricks_fancy_8"
  }
}